1° Cuatrimestre 3er año/Electrónica Digital/PracticaED/Guia2/Guia2EJ5/EJ5_tb.vcd
$date
	Mon May 12 19:40:52 2025
$end
$version
	Icarus Verilog
$end
$timescale
	1ps
$end
$scope module EJ5_tb $end
$var parameter 32 ! DURATION $end
$var reg 3 " ABC [2:0] $end
$var reg 1 # clk $end
$var integer 32 $ i [31:0] $end
$scope module UUT $end
$var wire 1 % A $end
$var wire 1 & B $end
$var wire 1 ' C $end
$var wire 1 ( f1 $end
$var wire 1 ) f2 $end
$var wire 1 * g1 $end
$var wire 1 + g2 $end
$var wire 1 , h1 $end
$var wire 1 - h2 $end
$var wire 1 . l1 $end
$var wire 1 / l2 $end
$upscope $end
$upscope $end
$enddefinitions $end
$comment Show the parameter values. $end
$dumpall
b1010 !
$end
#0
$dumpvars
x/
x.
x-
x,
x+
x*
x)
x(
x'
x&
x%
b0 $
0#
bx "
$end
#50000
1#
#100000
0,
0.
0*
0(
0)
0-
0/
0%
0&
0+
0'
0#
b1 $
b0 "
#150000
1#
#200000
1*
1+
1'
0#
b10 $
b1 "
#250000
1#
#300000
1,
0*
1-
1&
0+
0'
0#
b11 $
b10 "
#350000
1#
#400000
1*
1+
1'
0#
b100 $
b11 "
#450000
1#
#500000
0,
0*
0(
0-
1%
0&
0+
0'
0#
b101 $
b100 "
#550000
1#
#600000
1,
1*
1-
1+
1'
0#
b110 $
b101 "
#650000
1#
#700000
1(
1.
0*
1)
1/
1&
0+
0'
0#
b111 $
b110 "
#750000
1#
#800000
1*
1+
1'
0#
b1000 $
b111 "
#850000
1#
#900000
0,
0.
0*
0(
0)
0-
0/
0%
0&
0+
0'
0#
b1001 $
b0 "
