1° Cuatrimestre 3er año/Electrónica Digital/PracticaED/Guia5/EJ5/flip-flop-JK_tb.vcd
$date
	Mon Jun 02 10:40:12 2025
$end
$version
	Icarus Verilog
$end
$timescale
	1ps
$end
$scope module flipflopJK_tb $end
$var parameter 32 ! DURATION $end
$var reg 1 " sJ $end
$var reg 1 # sK $end
$var reg 1 $ sclk $end
$var reg 1 % senable $end
$var reg 1 & spreset $end
$var reg 1 ' sreset $end
$scope module UUT $end
$var wire 1 " J $end
$var wire 1 # K $end
$var wire 1 ( Q $end
$var wire 1 $ clk $end
$var wire 1 % enable $end
$var wire 1 & preset $end
$var wire 1 ' reset $end
$var reg 1 ) aux $end
$upscope $end
$upscope $end
$enddefinitions $end
$comment Show the parameter values. $end
$dumpall
b1010 !
$end
#0
$dumpvars
0)
0(
0'
0&
1%
0$
0#
0"
$end
#50000
1$
#100000
0$
1"
#150000
1(
1)
1$
#200000
0$
#250000
1$
#300000
0$
1#
0"
#350000
0(
0)
1$
#400000
0$
#450000
1$
#500000
0$
1"
#550000
1(
1)
1$
#600000
0$
#650000
0(
0)
1$
#700000
0$
0#
0"
#750000
1$
#800000
0$
#850000
1$
#900000
0$
1#
1"
0%
#950000
1$
#1000000
0$
#1050000
1$
#1100000
1(
1)
0$
1&
#1150000
1$
#1200000
0(
0)
0$
1'
0&
#1250000
1$
#1300000
0$
0'
