1° Cuatrimestre 3er año/Electrónica Digital/PracticaED/Guia4/barrel_shifter/Multiplexor8B/mux8_tb.vcd
$date
	Sat May 17 16:49:57 2025
$end
$version
	Icarus Verilog
$end
$timescale
	1ps
$end
$scope module mux8_tb $end
$var parameter 32 ! DURATION $end
$var reg 3 " S [2:0] $end
$var reg 8 # Sim [7:0] $end
$var reg 1 $ clk $end
$var integer 32 % i [31:0] $end
$scope module UUT $end
$var wire 8 & Ch [7:0] $end
$var wire 3 ' Selector [2:0] $end
$var wire 1 ( SCh $end
$upscope $end
$upscope $end
$enddefinitions $end
$comment Show the parameter values. $end
$dumpall
b1010 !
$end
#0
$dumpvars
x(
bx '
b1101010 &
b0 %
0$
b1101010 #
bx "
$end
#50000
1$
#100000
0$
b1 %
0(
b0 "
b0 '
#150000
1$
#200000
0$
b10 %
1(
b1 "
b1 '
#250000
1$
#300000
0$
b11 %
0(
b10 "
b10 '
#350000
1$
#400000
0$
b100 %
1(
b11 "
b11 '
#450000
1$
#500000
0$
b101 %
0(
b100 "
b100 '
#550000
1$
#600000
0$
b110 %
1(
b101 "
b101 '
#650000
1$
#700000
0$
b111 %
b110 "
b110 '
#750000
1$
#800000
0$
b1000 %
0(
b111 "
b111 '
