1° Cuatrimestre 3er año/Electrónica Digital/PracticaED/Guia5/EJ4/flip-flop-D_tb.vcd
$date
	Mon Jun 02 10:26:40 2025
$end
$version
	Icarus Verilog
$end
$timescale
	1ps
$end
$scope module flipflopD_tb $end
$var parameter 32 ! DURATION $end
$var reg 1 " sD $end
$var reg 1 # sclk $end
$var reg 1 $ senable $end
$var reg 1 % spreset $end
$var reg 1 & sreset $end
$var integer 32 ' i [31:0] $end
$scope module UUT $end
$var wire 1 " D $end
$var wire 1 ( Q $end
$var wire 1 # clk $end
$var wire 1 $ enable $end
$var wire 1 % preset $end
$var wire 1 & reset $end
$var reg 1 ) aux $end
$upscope $end
$upscope $end
$enddefinitions $end
$comment Show the parameter values. $end
$dumpall
b1010 !
$end
#0
$dumpvars
0)
0(
bx '
x&
x%
1$
0#
x"
$end
#50000
x(
x)
1#
#100000
0#
b0 '
0&
0%
0"
#150000
0(
0)
1#
#200000
0#
b1 '
1"
#250000
1(
1)
1#
#300000
0#
b10 '
0"
#350000
0(
0)
1#
#400000
0#
b11 '
1"
#450000
1(
1)
1#
#500000
0#
1%
#550000
1#
#600000
0#
0%
#650000
1#
#700000
0(
0)
0#
1&
#750000
1#
#800000
0#
0&
#850000
1(
1)
1#
