1° Cuatrimestre 3er año/Electrónica Digital/PracticaED/Guia3/Guia3EJ3a/EJ3_tb.vcd
$date
	Wed May 14 08:39:24 2025
$end
$version
	Icarus Verilog
$end
$timescale
	1ps
$end
$scope module EJ3_tb $end
$var parameter 32 ! DURATION $end
$var reg 1 " clk $end
$var reg 10 # decimal_sim [9:0] $end
$scope module UUT $end
$var wire 4 $ BCD_out [3:0] $end
$var wire 10 % decimal_in [9:0] $end
$var reg 4 & o_reg [3:0] $end
$upscope $end
$upscope $end
$enddefinitions $end
$comment Show the parameter values. $end
$dumpall
b1010 !
$end
#0
$dumpvars
bx &
bx %
bx $
bx #
0"
$end
#50000
1"
#100000
b1111 $
b1111 &
0"
b0 #
b0 %
#150000
1"
#200000
0"
#250000
1"
#300000
b0 $
b0 &
0"
b1000000000 #
b1000000000 %
#350000
1"
#400000
b1 $
b1 &
0"
b100000000 #
b100000000 %
#450000
1"
#500000
b10 $
b10 &
0"
b10000000 #
b10000000 %
#550000
1"
#600000
b11 $
b11 &
0"
b1000000 #
b1000000 %
#650000
1"
#700000
b100 $
b100 &
0"
b100000 #
b100000 %
#750000
1"
#800000
b101 $
b101 &
0"
b10000 #
b10000 %
#850000
1"
#900000
b110 $
b110 &
0"
b1000 #
b1000 %
#950000
1"
#1000000
b1000 $
b1000 &
0"
b10 #
b10 %
#1050000
1"
#1100000
b1001 $
b1001 &
0"
b1 #
b1 %
