1° Cuatrimestre 3er año/Electrónica Digital/PracticaED/Guia3/Guia3EJ3c/EJ3_tb.vcd
$date
	Fri May 16 13:04:44 2025
$end
$version
	Icarus Verilog
$end
$timescale
	1ps
$end
$scope module EJ3_tb $end
$var parameter 32 ! DURATION $end
$var reg 1 " clk $end
$var reg 8 # ocho_in [7:0] $end
$var integer 32 $ i [31:0] $end
$scope module UUT $end
$var wire 3 % bin_nat [2:0] $end
$var wire 8 & ocho_lineas [7:0] $end
$var reg 3 ' aux [2:0] $end
$var reg 1 ( valid $end
$upscope $end
$upscope $end
$enddefinitions $end
$comment Show the parameter values. $end
$dumpall
b1010 !
$end
#0
$dumpvars
x(
bx '
bx &
bx %
b0 $
bx #
0"
$end
#50000
1"
#100000
b0 %
b0 '
0(
0"
b1 $
b0 #
b0 &
#150000
1"
#200000
1(
0"
b10 $
b1 #
b1 &
#250000
1"
#300000
b1 %
b1 '
0"
b11 $
b10 #
b10 &
#350000
1"
#400000
0"
b100 $
b11 #
b11 &
#450000
1"
#500000
b10 %
b10 '
0"
b101 $
b100 #
b100 &
#550000
1"
#600000
0"
b110 $
b101 #
b101 &
#650000
1"
#700000
0"
b111 $
b110 #
b110 &
#750000
1"
#800000
0"
b1000 $
b111 #
b111 &
#850000
1"
#900000
b11 %
b11 '
0"
b1001 $
b1000 #
b1000 &
#950000
1"
#1000000
0"
b1010 $
b1001 #
b1001 &
#1050000
1"
#1100000
0"
b1011 $
b1010 #
b1010 &
#1150000
1"
#1200000
0"
b1100 $
b1011 #
b1011 &
#1250000
1"
#1300000
0"
b1101 $
b1100 #
b1100 &
#1350000
1"
#1400000
0"
b1110 $
b1101 #
b1101 &
#1450000
1"
#1500000
0"
b1111 $
b1110 #
b1110 &
#1550000
1"
#1600000
0"
b10000 $
b1111 #
b1111 &
#1650000
1"
#1700000
b100 %
b100 '
0"
b10001 $
b10000 #
b10000 &
#1750000
1"
#1800000
0"
b10010 $
b10001 #
b10001 &
#1850000
1"
#1900000
0"
b10011 $
b10010 #
b10010 &
#1950000
1"
#2000000
0"
b10100 $
b10011 #
b10011 &
#2050000
1"
#2100000
0"
b10101 $
b10100 #
b10100 &
#2150000
1"
#2200000
0"
b10110 $
b10101 #
b10101 &
#2250000
1"
#2300000
0"
b10111 $
b10110 #
b10110 &
#2350000
1"
#2400000
0"
b11000 $
b10111 #
b10111 &
#2450000
1"
#2500000
0"
b11001 $
b11000 #
b11000 &
#2550000
1"
#2600000
0"
b11010 $
b11001 #
b11001 &
#2650000
1"
#2700000
0"
b11011 $
b11010 #
b11010 &
#2750000
1"
#2800000
0"
b11100 $
b11011 #
b11011 &
#2850000
1"
#2900000
0"
b11101 $
b11100 #
b11100 &
#2950000
1"
#3000000
0"
b11110 $
b11101 #
b11101 &
#3050000
1"
#3100000
0"
b11111 $
b11110 #
b11110 &
#3150000
1"
#3200000
0"
b100000 $
b11111 #
b11111 &
#3250000
1"
#3300000
b101 %
b101 '
0"
b100001 $
b100000 #
b100000 &
#3350000
1"
#3400000
0"
b100010 $
b100001 #
b100001 &
#3450000
1"
#3500000
0"
b100011 $
b100010 #
b100010 &
#3550000
1"
#3600000
0"
b100100 $
b100011 #
b100011 &
#3650000
1"
#3700000
0"
b100101 $
b100100 #
b100100 &
#3750000
1"
#3800000
0"
b100110 $
b100101 #
b100101 &
#3850000
1"
#3900000
0"
b100111 $
b100110 #
b100110 &
#3950000
1"
#4000000
0"
b101000 $
b100111 #
b100111 &
#4050000
1"
#4100000
0"
b101001 $
b101000 #
b101000 &
#4150000
1"
#4200000
0"
b101010 $
b101001 #
b101001 &
#4250000
1"
#4300000
0"
b101011 $
b101010 #
b101010 &
#4350000
1"
#4400000
0"
b101100 $
b101011 #
b101011 &
#4450000
1"
#4500000
0"
b101101 $
b101100 #
b101100 &
#4550000
1"
#4600000
0"
b101110 $
b101101 #
b101101 &
#4650000
1"
#4700000
0"
b101111 $
b101110 #
b101110 &
#4750000
1"
#4800000
0"
b110000 $
b101111 #
b101111 &
#4850000
1"
#4900000
0"
b110001 $
b110000 #
b110000 &
#4950000
1"
#5000000
0"
b110010 $
b110001 #
b110001 &
#5050000
1"
#5100000
0"
b110011 $
b110010 #
b110010 &
#5150000
1"
#5200000
0"
b110100 $
b110011 #
b110011 &
#5250000
1"
#5300000
0"
b110101 $
b110100 #
b110100 &
#5350000
1"
#5400000
0"
b110110 $
b110101 #
b110101 &
#5450000
1"
#5500000
0"
b110111 $
b110110 #
b110110 &
#5550000
1"
#5600000
0"
b111000 $
b110111 #
b110111 &
#5650000
1"
#5700000
0"
b111001 $
b111000 #
b111000 &
#5750000
1"
#5800000
0"
b111010 $
b111001 #
b111001 &
#5850000
1"
#5900000
0"
b111011 $
b111010 #
b111010 &
#5950000
1"
#6000000
0"
b111100 $
b111011 #
b111011 &
#6050000
1"
#6100000
0"
b111101 $
b111100 #
b111100 &
#6150000
1"
#6200000
0"
b111110 $
b111101 #
b111101 &
#6250000
1"
#6300000
0"
b111111 $
b111110 #
b111110 &
#6350000
1"
#6400000
0"
b1000000 $
b111111 #
b111111 &
#6450000
1"
#6500000
b110 %
b110 '
0"
b1000001 $
b1000000 #
b1000000 &
#6550000
1"
#6600000
0"
b1000010 $
b1000001 #
b1000001 &
#6650000
1"
#6700000
0"
b1000011 $
b1000010 #
b1000010 &
#6750000
1"
#6800000
0"
b1000100 $
b1000011 #
b1000011 &
#6850000
1"
#6900000
0"
b1000101 $
b1000100 #
b1000100 &
#6950000
1"
#7000000
0"
b1000110 $
b1000101 #
b1000101 &
#7050000
1"
#7100000
0"
b1000111 $
b1000110 #
b1000110 &
#7150000
1"
#7200000
0"
b1001000 $
b1000111 #
b1000111 &
#7250000
1"
#7300000
0"
b1001001 $
b1001000 #
b1001000 &
#7350000
1"
#7400000
0"
b1001010 $
b1001001 #
b1001001 &
#7450000
1"
#7500000
0"
b1001011 $
b1001010 #
b1001010 &
#7550000
1"
#7600000
0"
b1001100 $
b1001011 #
b1001011 &
#7650000
1"
#7700000
0"
b1001101 $
b1001100 #
b1001100 &
#7750000
1"
#7800000
0"
b1001110 $
b1001101 #
b1001101 &
#7850000
1"
#7900000
0"
b1001111 $
b1001110 #
b1001110 &
#7950000
1"
#8000000
0"
b1010000 $
b1001111 #
b1001111 &
#8050000
1"
#8100000
0"
b1010001 $
b1010000 #
b1010000 &
#8150000
1"
#8200000
0"
b1010010 $
b1010001 #
b1010001 &
#8250000
1"
#8300000
0"
b1010011 $
b1010010 #
b1010010 &
#8350000
1"
#8400000
0"
b1010100 $
b1010011 #
b1010011 &
#8450000
1"
#8500000
0"
b1010101 $
b1010100 #
b1010100 &
#8550000
1"
#8600000
0"
b1010110 $
b1010101 #
b1010101 &
#8650000
1"
#8700000
0"
b1010111 $
b1010110 #
b1010110 &
#8750000
1"
#8800000
0"
b1011000 $
b1010111 #
b1010111 &
#8850000
1"
#8900000
0"
b1011001 $
b1011000 #
b1011000 &
#8950000
1"
#9000000
0"
b1011010 $
b1011001 #
b1011001 &
#9050000
1"
#9100000
0"
b1011011 $
b1011010 #
b1011010 &
#9150000
1"
#9200000
0"
b1011100 $
b1011011 #
b1011011 &
#9250000
1"
#9300000
0"
b1011101 $
b1011100 #
b1011100 &
#9350000
1"
#9400000
0"
b1011110 $
b1011101 #
b1011101 &
#9450000
1"
#9500000
0"
b1011111 $
b1011110 #
b1011110 &
#9550000
1"
#9600000
0"
b1100000 $
b1011111 #
b1011111 &
#9650000
1"
#9700000
0"
b1100001 $
b1100000 #
b1100000 &
#9750000
1"
#9800000
0"
b1100010 $
b1100001 #
b1100001 &
#9850000
1"
#9900000
0"
b1100011 $
b1100010 #
b1100010 &
#9950000
1"
#10000000
0"
b1100100 $
b1100011 #
b1100011 &
#10050000
1"
#10100000
0"
b1100101 $
b1100100 #
b1100100 &
#10150000
1"
#10200000
0"
b1100110 $
b1100101 #
b1100101 &
#10250000
1"
#10300000
0"
b1100111 $
b1100110 #
b1100110 &
#10350000
1"
#10400000
0"
b1101000 $
b1100111 #
b1100111 &
#10450000
1"
#10500000
0"
b1101001 $
b1101000 #
b1101000 &
#10550000
1"
#10600000
0"
b1101010 $
b1101001 #
b1101001 &
#10650000
1"
#10700000
0"
b1101011 $
b1101010 #
b1101010 &
#10750000
1"
#10800000
0"
b1101100 $
b1101011 #
b1101011 &
#10850000
1"
#10900000
0"
b1101101 $
b1101100 #
b1101100 &
#10950000
1"
#11000000
0"
b1101110 $
b1101101 #
b1101101 &
#11050000
1"
#11100000
0"
b1101111 $
b1101110 #
b1101110 &
#11150000
1"
#11200000
0"
b1110000 $
b1101111 #
b1101111 &
#11250000
1"
#11300000
0"
b1110001 $
b1110000 #
b1110000 &
#11350000
1"
#11400000
0"
b1110010 $
b1110001 #
b1110001 &
#11450000
1"
#11500000
0"
b1110011 $
b1110010 #
b1110010 &
#11550000
1"
#11600000
0"
b1110100 $
b1110011 #
b1110011 &
#11650000
1"
#11700000
0"
b1110101 $
b1110100 #
b1110100 &
#11750000
1"
#11800000
0"
b1110110 $
b1110101 #
b1110101 &
#11850000
1"
#11900000
0"
b1110111 $
b1110110 #
b1110110 &
#11950000
1"
#12000000
0"
b1111000 $
b1110111 #
b1110111 &
#12050000
1"
#12100000
0"
b1111001 $
b1111000 #
b1111000 &
#12150000
1"
#12200000
0"
b1111010 $
b1111001 #
b1111001 &
#12250000
1"
#12300000
0"
b1111011 $
b1111010 #
b1111010 &
#12350000
1"
#12400000
0"
b1111100 $
b1111011 #
b1111011 &
#12450000
1"
#12500000
0"
b1111101 $
b1111100 #
b1111100 &
#12550000
1"
#12600000
0"
b1111110 $
b1111101 #
b1111101 &
#12650000
1"
#12700000
0"
b1111111 $
b1111110 #
b1111110 &
#12750000
1"
#12800000
0"
b10000000 $
b1111111 #
b1111111 &
#12850000
1"
#12900000
b111 %
b111 '
0"
b10000001 $
b10000000 #
b10000000 &
#12950000
1"
#13000000
0"
b10000010 $
b10000001 #
b10000001 &
#13050000
1"
#13100000
0"
b10000011 $
b10000010 #
b10000010 &
#13150000
1"
#13200000
0"
b10000100 $
b10000011 #
b10000011 &
#13250000
1"
#13300000
0"
b10000101 $
b10000100 #
b10000100 &
#13350000
1"
#13400000
0"
b10000110 $
b10000101 #
b10000101 &
#13450000
1"
#13500000
0"
b10000111 $
b10000110 #
b10000110 &
#13550000
1"
#13600000
0"
b10001000 $
b10000111 #
b10000111 &
#13650000
1"
#13700000
0"
b10001001 $
b10001000 #
b10001000 &
#13750000
1"
#13800000
0"
b10001010 $
b10001001 #
b10001001 &
#13850000
1"
#13900000
0"
b10001011 $
b10001010 #
b10001010 &
#13950000
1"
#14000000
0"
b10001100 $
b10001011 #
b10001011 &
#14050000
1"
#14100000
0"
b10001101 $
b10001100 #
b10001100 &
#14150000
1"
#14200000
0"
b10001110 $
b10001101 #
b10001101 &
#14250000
1"
#14300000
0"
b10001111 $
b10001110 #
b10001110 &
#14350000
1"
#14400000
0"
b10010000 $
b10001111 #
b10001111 &
#14450000
1"
#14500000
0"
b10010001 $
b10010000 #
b10010000 &
#14550000
1"
#14600000
0"
b10010010 $
b10010001 #
b10010001 &
#14650000
1"
#14700000
0"
b10010011 $
b10010010 #
b10010010 &
#14750000
1"
#14800000
0"
b10010100 $
b10010011 #
b10010011 &
#14850000
1"
#14900000
0"
b10010101 $
b10010100 #
b10010100 &
#14950000
1"
#15000000
0"
b10010110 $
b10010101 #
b10010101 &
#15050000
1"
#15100000
0"
b10010111 $
b10010110 #
b10010110 &
#15150000
1"
#15200000
0"
b10011000 $
b10010111 #
b10010111 &
#15250000
1"
#15300000
0"
b10011001 $
b10011000 #
b10011000 &
#15350000
1"
#15400000
0"
b10011010 $
b10011001 #
b10011001 &
#15450000
1"
#15500000
0"
b10011011 $
b10011010 #
b10011010 &
#15550000
1"
#15600000
0"
b10011100 $
b10011011 #
b10011011 &
#15650000
1"
#15700000
0"
b10011101 $
b10011100 #
b10011100 &
#15750000
1"
#15800000
0"
b10011110 $
b10011101 #
b10011101 &
#15850000
1"
#15900000
0"
b10011111 $
b10011110 #
b10011110 &
#15950000
1"
#16000000
0"
b10100000 $
b10011111 #
b10011111 &
#16050000
1"
#16100000
0"
b10100001 $
b10100000 #
b10100000 &
#16150000
1"
#16200000
0"
b10100010 $
b10100001 #
b10100001 &
#16250000
1"
#16300000
0"
b10100011 $
b10100010 #
b10100010 &
#16350000
1"
#16400000
0"
b10100100 $
b10100011 #
b10100011 &
#16450000
1"
#16500000
0"
b10100101 $
b10100100 #
b10100100 &
#16550000
1"
#16600000
0"
b10100110 $
b10100101 #
b10100101 &
#16650000
1"
#16700000
0"
b10100111 $
b10100110 #
b10100110 &
#16750000
1"
#16800000
0"
b10101000 $
b10100111 #
b10100111 &
#16850000
1"
#16900000
0"
b10101001 $
b10101000 #
b10101000 &
#16950000
1"
#17000000
0"
b10101010 $
b10101001 #
b10101001 &
#17050000
1"
#17100000
0"
b10101011 $
b10101010 #
b10101010 &
#17150000
1"
#17200000
0"
b10101100 $
b10101011 #
b10101011 &
#17250000
1"
#17300000
0"
b10101101 $
b10101100 #
b10101100 &
#17350000
1"
#17400000
0"
b10101110 $
b10101101 #
b10101101 &
#17450000
1"
#17500000
0"
b10101111 $
b10101110 #
b10101110 &
#17550000
1"
#17600000
0"
b10110000 $
b10101111 #
b10101111 &
#17650000
1"
#17700000
0"
b10110001 $
b10110000 #
b10110000 &
#17750000
1"
#17800000
0"
b10110010 $
b10110001 #
b10110001 &
#17850000
1"
#17900000
0"
b10110011 $
b10110010 #
b10110010 &
#17950000
1"
#18000000
0"
b10110100 $
b10110011 #
b10110011 &
#18050000
1"
#18100000
0"
b10110101 $
b10110100 #
b10110100 &
#18150000
1"
#18200000
0"
b10110110 $
b10110101 #
b10110101 &
#18250000
1"
#18300000
0"
b10110111 $
b10110110 #
b10110110 &
#18350000
1"
#18400000
0"
b10111000 $
b10110111 #
b10110111 &
#18450000
1"
#18500000
0"
b10111001 $
b10111000 #
b10111000 &
#18550000
1"
#18600000
0"
b10111010 $
b10111001 #
b10111001 &
#18650000
1"
#18700000
0"
b10111011 $
b10111010 #
b10111010 &
#18750000
1"
#18800000
0"
b10111100 $
b10111011 #
b10111011 &
#18850000
1"
#18900000
0"
b10111101 $
b10111100 #
b10111100 &
#18950000
1"
#19000000
0"
b10111110 $
b10111101 #
b10111101 &
#19050000
1"
#19100000
0"
b10111111 $
b10111110 #
b10111110 &
#19150000
1"
#19200000
0"
b11000000 $
b10111111 #
b10111111 &
#19250000
1"
#19300000
0"
b11000001 $
b11000000 #
b11000000 &
#19350000
1"
#19400000
0"
b11000010 $
b11000001 #
b11000001 &
#19450000
1"
#19500000
0"
b11000011 $
b11000010 #
b11000010 &
#19550000
1"
#19600000
0"
b11000100 $
b11000011 #
b11000011 &
#19650000
1"
#19700000
0"
b11000101 $
b11000100 #
b11000100 &
#19750000
1"
#19800000
0"
b11000110 $
b11000101 #
b11000101 &
#19850000
1"
#19900000
0"
b11000111 $
b11000110 #
b11000110 &
#19950000
1"
#20000000
0"
b11001000 $
b11000111 #
b11000111 &
#20050000
1"
#20100000
0"
b11001001 $
b11001000 #
b11001000 &
#20150000
1"
#20200000
0"
b11001010 $
b11001001 #
b11001001 &
#20250000
1"
#20300000
0"
b11001011 $
b11001010 #
b11001010 &
#20350000
1"
#20400000
0"
b11001100 $
b11001011 #
b11001011 &
#20450000
1"
#20500000
0"
b11001101 $
b11001100 #
b11001100 &
#20550000
1"
#20600000
0"
b11001110 $
b11001101 #
b11001101 &
#20650000
1"
#20700000
0"
b11001111 $
b11001110 #
b11001110 &
#20750000
1"
#20800000
0"
b11010000 $
b11001111 #
b11001111 &
#20850000
1"
#20900000
0"
b11010001 $
b11010000 #
b11010000 &
#20950000
1"
#21000000
0"
b11010010 $
b11010001 #
b11010001 &
#21050000
1"
#21100000
0"
b11010011 $
b11010010 #
b11010010 &
#21150000
1"
#21200000
0"
b11010100 $
b11010011 #
b11010011 &
#21250000
1"
#21300000
0"
b11010101 $
b11010100 #
b11010100 &
#21350000
1"
#21400000
0"
b11010110 $
b11010101 #
b11010101 &
#21450000
1"
#21500000
0"
b11010111 $
b11010110 #
b11010110 &
#21550000
1"
#21600000
0"
b11011000 $
b11010111 #
b11010111 &
#21650000
1"
#21700000
0"
b11011001 $
b11011000 #
b11011000 &
#21750000
1"
#21800000
0"
b11011010 $
b11011001 #
b11011001 &
#21850000
1"
#21900000
0"
b11011011 $
b11011010 #
b11011010 &
#21950000
1"
#22000000
0"
b11011100 $
b11011011 #
b11011011 &
#22050000
1"
#22100000
0"
b11011101 $
b11011100 #
b11011100 &
#22150000
1"
#22200000
0"
b11011110 $
b11011101 #
b11011101 &
#22250000
1"
#22300000
0"
b11011111 $
b11011110 #
b11011110 &
#22350000
1"
#22400000
0"
b11100000 $
b11011111 #
b11011111 &
#22450000
1"
#22500000
0"
b11100001 $
b11100000 #
b11100000 &
#22550000
1"
#22600000
0"
b11100010 $
b11100001 #
b11100001 &
#22650000
1"
#22700000
0"
b11100011 $
b11100010 #
b11100010 &
#22750000
1"
#22800000
0"
b11100100 $
b11100011 #
b11100011 &
#22850000
1"
#22900000
0"
b11100101 $
b11100100 #
b11100100 &
#22950000
1"
#23000000
0"
b11100110 $
b11100101 #
b11100101 &
#23050000
1"
#23100000
0"
b11100111 $
b11100110 #
b11100110 &
#23150000
1"
#23200000
0"
b11101000 $
b11100111 #
b11100111 &
#23250000
1"
#23300000
0"
b11101001 $
b11101000 #
b11101000 &
#23350000
1"
#23400000
0"
b11101010 $
b11101001 #
b11101001 &
#23450000
1"
#23500000
0"
b11101011 $
b11101010 #
b11101010 &
#23550000
1"
#23600000
0"
b11101100 $
b11101011 #
b11101011 &
#23650000
1"
#23700000
0"
b11101101 $
b11101100 #
b11101100 &
#23750000
1"
#23800000
0"
b11101110 $
b11101101 #
b11101101 &
#23850000
1"
#23900000
0"
b11101111 $
b11101110 #
b11101110 &
#23950000
1"
#24000000
0"
b11110000 $
b11101111 #
b11101111 &
#24050000
1"
#24100000
0"
b11110001 $
b11110000 #
b11110000 &
#24150000
1"
#24200000
0"
b11110010 $
b11110001 #
b11110001 &
#24250000
1"
#24300000
0"
b11110011 $
b11110010 #
b11110010 &
#24350000
1"
#24400000
0"
b11110100 $
b11110011 #
b11110011 &
#24450000
1"
#24500000
0"
b11110101 $
b11110100 #
b11110100 &
#24550000
1"
#24600000
0"
b11110110 $
b11110101 #
b11110101 &
#24650000
1"
#24700000
0"
b11110111 $
b11110110 #
b11110110 &
#24750000
1"
#24800000
0"
b11111000 $
b11110111 #
b11110111 &
#24850000
1"
#24900000
0"
b11111001 $
b11111000 #
b11111000 &
#24950000
1"
#25000000
0"
b11111010 $
b11111001 #
b11111001 &
#25050000
1"
#25100000
0"
b11111011 $
b11111010 #
b11111010 &
#25150000
1"
#25200000
0"
b11111100 $
b11111011 #
b11111011 &
#25250000
1"
#25300000
0"
b11111101 $
b11111100 #
b11111100 &
#25350000
1"
#25400000
0"
b11111110 $
b11111101 #
b11111101 &
#25450000
1"
#25500000
0"
b11111111 $
b11111110 #
b11111110 &
#25550000
1"
#25600000
0"
b100000000 $
b11111111 #
b11111111 &
