1° Cuatrimestre 3er año/Electrónica Digital/PracticaED/Guia5/Registro PP 4B/flipflopD/flip-flop-D_tb.vcd
$date
	Tue May 27 10:50:13 2025
$end
$version
	Icarus Verilog
$end
$timescale
	1ps
$end
$scope module flipflopD_tb $end
$var parameter 32 ! DURATION $end
$var reg 1 " sD $end
$var reg 1 # sclk $end
$var integer 32 $ i [31:0] $end
$scope module UUT $end
$var wire 1 " D $end
$var wire 1 % Q $end
$var wire 1 # clk $end
$var reg 1 & aux $end
$upscope $end
$upscope $end
$enddefinitions $end
$comment Show the parameter values. $end
$dumpall
b1010 !
$end
#0
$dumpvars
0&
0%
bx $
0#
x"
$end
#50000
1#
#100000
0#
b0 $
0"
#150000
1#
#200000
0#
b1 $
1"
#250000
1%
1&
1#
#300000
0#
b10 $
0"
#350000
0%
0&
1#
#400000
0#
b11 $
1"
#450000
1%
1&
1#
